{
  "mobs": {
    "mobsLessFear": true,
    "merchantHostility": true
  },
  "zombies": {
    "zombieTypeBuffed": "NONE",
    "zombiePlayersAttack": 20,
    "zombieMobsAttack": 50,
    "huskFireProtection": true,
    "drownedTridentSpawn": true,
    "drownedHighVelocity": true
  },
  "skeletons": {
    "skeletonFleeGoal": true,
    "strayBetterSlowness": true
  },
  "spiders": {
    "babySpiders": true,
    "webProjectileGoal": true,
    "caveSpiderJockey": false,
    "caveSpiderNaturalSpawn": false
  },
  "creepers": {
    "explosionFatigue": true,
    "explosionWeakness": true,
    "chainExplosions": true
  },
  "slimes": {
    "slimeBiggerSize": true,
    "slimeCanMerge": true
  },
  "illagers": {
    "pillagerMoreEnchants": true,
    "pillagerSpeedBonus": true,
    "vindicatorInPatrols": true,
    "vindicatorSpeedBonus": true,
    "ravagerInPatrols": true,
    "evokerStopArrows": true,
    "evokerIncreasedHealth": true,
    "illusionerInMansions": true,
    "witchFleeGoal": true,
    "witchMoreSpawn": true
  },
  "phantoms": {
    "phantomThroughBlocks": false,
    "phantomLightFear": false,
    "phantomTranslucent": false
  },
  "guardianNaturalSpawn": false
}